829, 1228
843, 1249
878, 1306
890, 1345
871, 1350
846, 1315
837, 1290
827, 1244
821, 1236
843, 1242
872, 1277
961, 1312
876, 1267
866, 1270
838, 1265
853, 1267
866, 1279
883, 1291
895, 1300
889, 1316
876, 1335
858, 1331
830, 1325
808, 1314
818, 1304
817, 1304
792, 1286
781, 1270
804, 1275
843, 1292
879, 1288
913, 1258
877, 1233
840, 1232
841, 1245
871, 1238
857, 1246
830, 1273
854, 1287
929, 1278
855, 1246
849, 1236
864, 1264
816, 1250
783, 1237
786, 1224
809, 1218
834, 1236
847, 1237
904, 1250
874, 1242
834, 1246
825, 1270
855, 1279
872, 1269
866, 1236
871, 1246
841, 1264
834, 1265
843, 1284
857, 1257
855, 1247
853, 1245
835, 1248
886, 1276
872, 1287
834, 1297
838, 1327
809, 1327
831, 1322
919, 1286
873, 1245
829, 1241
802, 1230
829, 1252
850, 1247
862, 1253
885, 1267
864, 1252
840, 1256
838, 1266
825, 1279
809, 1282
802, 1295
842, 1301
893, 1298
907, 1303
880, 1286
854, 1267
837, 1264
840, 1271
840, 1271
844, 1272
846, 1281
837, 1298
823, 1305
835, 1298
843, 1268
836, 1250
824, 1248
807, 1240
799, 1242
818, 1265
840, 1271
839, 1277
812, 1271
797, 1253
832, 1256
832, 1287
840, 1299
836, 1291
823, 1269
818, 1262
826, 1266
840, 1280
844, 1280
848, 1267
851, 1242
845, 1225
839, 1218
836, 1211
852, 1209
881, 1224
909, 1255
924, 1265
897, 1271
867, 1284
900, 1283
918, 1273
896, 1271
898, 1280
908, 1294
912, 1293
918, 1280
898, 1273
889, 1280
864, 1285
812, 1271
809, 1263
825, 1271
824, 1273
816, 1277
809, 1272
791, 1260
783, 1274
812, 1305
866, 1319
859, 1300
866, 1312
883, 1318
886, 1305
854, 1283
852, 1280
843, 1294
834, 1305
839, 1319
830, 1334
809, 1331
849, 1310
889, 1294
864, 1287
849, 1272
831, 1275
834, 1284
839, 1290
806, 1293
809, 1303
825, 1318
808, 1318
830, 1316
843, 1314
841, 1305
823, 1301
822, 1299
844, 1308
837, 1293
847, 1261
824, 1257
824, 1264
823, 1261
856, 1267
881, 1256
862, 1243
849, 1228
839, 1221
828, 1256
854, 1276
854, 1274
845, 1280
848, 1277
847, 1284
821, 1287
813, 1275
815, 1271
833, 1283
835, 1314
851, 1308
856, 1301
875, 1309
886, 1304
883, 1288
883, 1277
869, 1272
853, 1274
834, 1280
809, 1279
818, 1267
838, 1261
838, 1262
854, 1260
895, 1252
922, 1240
914, 1222
892, 1211
878, 1215
851, 1226
813, 1226
809, 1223
845, 1229
856, 1222
859, 1220
850, 1232
848, 1246
858, 1262
846, 1274
827, 1281
831, 1288
855, 1285
879, 1273
850, 1251
801, 1253
809, 1242
822, 1233
810, 1234
788, 1238
791, 1243
816, 1261
843, 1287
833, 1281
831, 1297
825, 1312
826, 1314
907, 1334
942, 1345
912, 1358
905, 1379
890, 1399
860, 1402
854, 1384
840, 1365
829, 1345
824, 1330
827, 1327
843, 1320
861, 1313
882, 1303
877, 1288
863, 1270
831, 1264
827, 1273
849, 1281
826, 1270
856, 1293
894, 1307
885, 1316
866, 1337
869, 1348
870, 1350
847, 1332
805, 1302
760, 1302
784, 1315
837, 1326
836, 1300
824, 1292
828, 1311
881, 1315
896, 1299
859, 1288
820, 1280
810, 1266
812, 1250
837, 1230
846, 1234
871, 1252
878, 1245
874, 1241
877, 1236
881, 1234
875, 1251
861, 1250
843, 1231
850, 1233
857, 1244
857, 1258
839, 1266
834, 1282
862, 1290
838, 1282
812, 1287
808, 1299
849, 1309
850, 1281
839, 1248
832, 1247
795, 1264
791, 1260
820, 1265
830, 1236
837, 1222
842, 1217
848, 1224
839, 1241
864, 1226
884, 1254
862, 1296
886, 1298
894, 1290
892, 1274
875, 1244
850, 1241
827, 1234
817, 1247
817, 1263
812, 1289
854, 1281
889, 1289
885, 1283
837, 1269
829, 1277
821, 1259
846, 1286
839, 1301
829, 1291
815, 1284
861, 1294
882, 1274
861, 1274
845, 1281
854, 1307
843, 1306
827, 1285
814, 1293
806, 1307
795, 1308
817, 1318
838, 1346
837, 1357
810, 1332
801, 1324
804, 1324
800, 1325
771, 1308
758, 1303
746, 1305
767, 1299
773, 1284
779, 1289
789, 1297
831, 1300
871, 1289
842, 1285
809, 1279
803, 1273
817, 1258
812, 1246
814, 1236
815, 1221
803, 1220
786, 1223
796, 1240
819, 1268
844, 1273
867, 1274
885, 1272
886, 1266
857, 1274
859, 1290
892, 1301
906, 1305
880, 1303
881, 1308
866, 1306
835, 1298
858, 1310
915, 1338
949, 1351
895, 1331
854, 1330
848, 1337
825, 1301
801, 1273
800, 1261
805, 1267
794, 1285
793, 1291
803, 1284
803, 1290
813, 1291
849, 1276
803, 1257
774, 1255
764, 1272
765, 1286
771, 1288
799, 1294
831, 1297
856, 1302
869, 1303
847, 1303
875, 1281
928, 1254
906, 1242
879, 1254
872, 1269
859, 1283
855, 1291
863, 1290
874, 1285
875, 1272
887, 1262
907, 1267
926, 1277
925, 1280
912, 1281
899, 1277
898, 1276
912, 1280
908, 1286
881, 1286
868, 1288
867, 1294
873, 1302
875, 1307
862, 1307
845, 1298
831, 1278
828, 1261
865, 1261
870, 1267
834, 1284
834, 1299
835, 1296
833, 1291
833, 1290
835, 1292
836, 1299
832, 1308
821, 1312
807, 1310
827, 1306
861, 1309
849, 1297
842, 1292
864, 1298
864, 1286
837, 1253
838, 1237
848, 1240
842, 1240
831, 1253
824, 1251
838, 1260
844, 1278
864, 1282
865, 1276
884, 1253
886, 1253
875, 1266
856, 1277
862, 1271
866, 1257
850, 1244
837, 1224
826, 1223
805, 1241
771, 1273
832, 1289
895, 1289
912, 1278
908, 1266
886, 1255
861, 1261
844, 1260
815, 1261
783, 1260
773, 1254
774, 1244
805, 1232
829, 1214
843, 1199
852, 1221
842, 1247
829, 1261
826, 1267
832, 1285
833, 1306
823, 1310
822, 1324
817, 1312
779, 1296
760, 1267
774, 1254
776, 1261
790, 1255
808, 1277
860, 1286
854, 1281
852, 1282
851, 1292
884, 1296
866, 1288
851, 1282
831, 1279
830, 1282
851, 1288
844, 1264
839, 1245
839, 1245
832, 1256
834, 1273
835, 1295
825, 1315
825, 1325
826, 1340
829, 1350
827, 1342
811, 1323
801, 1314
797, 1309
793, 1308
788, 1313
801, 1326
830, 1344
835, 1342
829, 1334
825, 1336
815, 1344
799, 1351
788, 1342
793, 1333
816, 1335
848, 1332
878, 1325
890, 1319
883, 1317
891, 1301
881, 1268
839, 1246
829, 1226
845, 1220
837, 1232
830, 1251
833, 1263
825, 1252
830, 1247
849, 1249
879, 1266
893, 1278
880, 1264
858, 1260
830, 1290
821, 1312
823, 1307
812, 1286
808, 1266
832, 1269
898, 1300
919, 1319
868, 1303
835, 1294
831, 1293
836, 1300
835, 1306
834, 1328
837, 1345
819, 1350
822, 1357
830, 1343
825, 1310
817, 1281
794, 1253
783, 1216
814, 1189
820, 1194
783, 1179
775, 1141
790, 1137
800, 1159
799, 1193
778, 1212
764, 1230
777, 1242
781, 1238
800, 1234
834, 1247
869, 1275
854, 1261
848, 1253
848, 1259
842, 1270
840, 1270
839, 1261
829, 1251
815, 1234
799, 1216
787, 1210
778, 1213
776, 1214
791, 1214
806, 1219
810, 1231
824, 1225
826, 1209
831, 1202
836, 1207
838, 1222
844, 1238
852, 1248
863, 1255
874, 1260
883, 1265
882, 1266
881, 1266
875, 1262
846, 1256
840, 1264
815, 1270
794, 1288
777, 1319
811, 1332
794, 1313
774, 1302
767, 1298
770, 1305
790, 1312
832, 1301
867, 1282
870, 1267
862, 1260
850, 1247
857, 1226
835, 1218
786, 1223
836, 1229
925, 1289
908, 1302
861, 1282
832, 1256
824, 1248
827, 1250
832, 1260
862, 1262
865, 1252
861, 1255
870, 1264
870, 1276
858, 1281
858, 1284
851, 1291
843, 1304
844, 1319
839, 1320
829, 1311
828, 1310
829, 1308
839, 1305
868, 1304
891, 1298
877, 1290
861, 1289
854, 1297
850, 1309
845, 1320
843, 1318
850, 1310
856, 1309
836, 1307
825, 1303
827, 1300
835, 1295
842, 1282
837, 1282
824, 1286
842, 1278
853, 1268
837, 1279
843, 1287
832, 1282
849, 1286
862, 1280
843, 1284
850, 1306
844, 1301
850, 1300
862, 1308
851, 1316
847, 1320
859, 1321
868, 1351
908, 1363
900, 1340
875, 1310
870, 1292
870, 1274
865, 1260
856, 1251
844, 1248
834, 1246
826, 1248
813, 1250
793, 1247
773, 1240
776, 1237
795, 1242
825, 1241
837, 1216
837, 1199
833, 1198
824, 1191
829, 1185
855, 1199
842, 1227
835, 1241
846, 1262
891, 1276
885, 1275
875, 1288
871, 1308
874, 1314
873, 1311
879, 1313
877, 1319
864, 1312
852, 1298
845, 1290
845, 1289
851, 1292
861, 1287
876, 1270
896, 1254
916, 1245
932, 1247
939, 1253
930, 1263
930, 1287
897, 1285
868, 1276
853, 1269
865, 1250
841, 1235
805, 1243
798, 1261
785, 1265
782, 1255
782, 1243
785, 1230
819, 1233
869, 1225
886, 1234
900, 1248
906, 1259
870, 1272
805, 1281
795, 1268
809, 1253
825, 1255
880, 1247
913, 1230
919, 1245
884, 1262
848, 1272
820, 1268
834, 1254
831, 1242
818, 1238
833, 1238
848, 1245
896, 1256
904, 1270
864, 1291
874, 1323
863, 1334
836, 1329
853, 1324
860, 1306
842, 1302
854, 1310
897, 1311
930, 1300
918, 1284
899, 1287
865, 1297
832, 1306
829, 1297
815, 1288
799, 1290
776, 1292
776, 1291
790, 1267
820, 1249
872, 1267
897, 1287
888, 1295
903, 1299
929, 1299
925, 1300
900, 1294
875, 1267
871, 1267
865, 1267
845, 1261
811, 1242
787, 1225
804, 1260
828, 1268
840, 1243
860, 1219
848, 1225
827, 1233
840, 1244
841, 1254
856, 1237
839, 1225
838, 1215
863, 1236
852, 1245
854, 1240
848, 1253
847, 1276
853, 1292
848, 1289
827, 1268
803, 1258
799, 1264
816, 1276
839, 1292
856, 1295
860, 1291
861, 1281
861, 1272
865, 1271
862, 1278
865, 1281
863, 1286
866, 1290
871, 1298
872, 1309
860, 1315
857, 1321
856, 1332
857, 1346
847, 1354
827, 1345
804, 1333
771, 1317
775, 1302
826, 1301
850, 1314
863, 1312
870, 1302
871, 1298
870, 1293
872, 1284
874, 1282
870, 1285
864, 1286
854, 1293
832, 1301
827, 1308
831, 1304
841, 1297
851, 1291
835, 1289
825, 1290
825, 1287
828, 1280
832, 1270
817, 1272
794, 1280
801, 1268
805, 1255
792, 1250
774, 1244
764, 1230
767, 1216
747, 1211
743, 1213
781, 1225
826, 1247
846, 1259
853, 1265
872, 1273
895, 1282
896, 1278
884, 1262
882, 1246
887, 1241
903, 1244
916, 1249
921, 1253
906, 1258
896, 1264
886, 1269
886, 1269
882, 1267
883, 1265
885, 1262
882, 1255
865, 1250
849, 1257
884, 1268
873, 1267
851, 1247
846, 1225
850, 1209
846, 1219
823, 1238
803, 1261
798, 1271
805, 1252
826, 1235
852, 1243
868, 1259
871, 1275
868, 1289
852, 1299
829, 1301
797, 1298
754, 1301
745, 1311
806, 1309
797, 1299
798, 1299
822, 1297
847, 1293
856, 1288
856, 1284
875, 1289
909, 1300
939, 1312
939, 1311
898, 1295
866, 1290
853, 1287
845, 1294
831, 1309
823, 1320
839, 1332
865, 1341
885, 1319
892, 1299
890, 1298
892, 1308
894, 1316
890, 1322
905, 1325
923, 1323
908, 1327
900, 1336
896, 1338
887, 1337
873, 1334
859, 1329
849, 1326
845, 1325
844, 1323
845, 1318
847, 1308
851, 1293
853, 1276
851, 1264
847, 1258
858, 1269
861, 1275
853, 1278
855, 1277
854, 1272
842, 1268
838, 1262
830, 1261
819, 1266
811, 1274
802, 1291
788, 1313
772, 1322
770, 1312
784, 1293
805, 1278
829, 1271
847, 1268
855, 1271
862, 1274
870, 1277
880, 1287
881, 1300
868, 1315
853, 1327
852, 1330
848, 1332
830, 1337
827, 1340
836, 1339
834, 1340
825, 1341
819, 1342
815, 1341
808, 1337
801, 1333
792, 1333
783, 1331
783, 1323
797, 1312
819, 1299
845, 1296
842, 1307
833, 1318
827, 1326
825, 1325
829, 1323
829, 1324
827, 1328
824, 1334
882, 1341
875, 1338
850, 1333
849, 1325
847, 1318
843, 1305
832, 1290
822, 1287
814, 1281
810, 1276
812, 1274
813, 1276
815, 1281
817, 1284
823, 1287
820, 1285
811, 1283
808, 1291
802, 1302
793, 1312
785, 1319
772, 1324
759, 1316
753, 1287
763, 1258
795, 1232
821, 1243
824, 1272
833, 1287
845, 1298
861, 1305
869, 1317
825, 1306
793, 1283
829, 1280
840, 1288
815, 1306
805, 1297
818, 1283
841, 1287
854, 1283
862, 1285
872, 1301
852, 1305
808, 1295
769, 1285
750, 1286
776, 1291
823, 1292
833, 1289
827, 1287
823, 1291
818, 1300
826, 1296
867, 1282
844, 1277
807, 1248
816, 1238
822, 1255
835, 1286
820, 1285
807, 1277
822, 1276
863, 1280
849, 1260
822, 1255
820, 1254
836, 1256
844, 1258
847, 1256
845, 1253
868, 1249
873, 1248
870, 1245
874, 1238
873, 1237
875, 1243
876, 1253
869, 1256
862, 1245
851, 1243
847, 1253
874, 1276
873, 1276
875, 1271
870, 1284
854, 1319
891, 1319
879, 1285
909, 1260
936, 1256
895, 1249
840, 1258
799, 1280
807, 1279
